0 info it worked if it ends with ok
1 verbose cli [ '/usr/bin/node', '/usr/bin/npm', 'install', '-g', 'https' ]
2 info using npm@1.4.28
3 info using node@v0.10.32
4 verbose node symlink /usr/bin/node
5 verbose cache add [ 'https', null ]
6 verbose cache add name=undefined spec="https" args=["https",null]
7 verbose parsed url { protocol: null,
7 verbose parsed url   slashes: null,
7 verbose parsed url   auth: null,
7 verbose parsed url   host: null,
7 verbose parsed url   port: null,
7 verbose parsed url   hostname: null,
7 verbose parsed url   hash: null,
7 verbose parsed url   search: null,
7 verbose parsed url   query: null,
7 verbose parsed url   pathname: 'https',
7 verbose parsed url   path: 'https',
7 verbose parsed url   href: 'https' }
8 silly lockFile c3437dbc-https https
9 verbose lock https /home/tlimpanont/.npm/c3437dbc-https.lock
10 silly lockFile c3437dbc-https https
11 silly lockFile c3437dbc-https https
12 verbose addNamed [ 'https', '' ]
13 verbose addNamed [ null, '*' ]
14 silly lockFile 421d451a-https https@
15 verbose lock https@ /home/tlimpanont/.npm/421d451a-https.lock
16 silly addNameRange { name: 'https', range: '*', hasData: false }
17 verbose request where is /https
18 verbose request registry https://registry.npmjs.org/
19 verbose request id 6cac03298656a6d4
20 verbose url raw /https
21 verbose url resolving [ 'https://registry.npmjs.org/', './https' ]
22 verbose url resolved https://registry.npmjs.org/https
23 verbose request where is https://registry.npmjs.org/https
24 info trying registry request attempt 1 at 21:00:26
25 http GET https://registry.npmjs.org/https
26 http 404 https://registry.npmjs.org/https
27 verbose headers { date: 'Sat, 27 Dec 2014 20:00:27 GMT',
27 verbose headers   server: 'CouchDB/1.5.0 (Erlang OTP/R14B04)',
27 verbose headers   'content-type': 'application/json',
27 verbose headers   'cache-control': 'max-age=0',
27 verbose headers   'content-length': '52',
27 verbose headers   'accept-ranges': 'bytes',
27 verbose headers   via: '1.1 varnish',
27 verbose headers   age: '0',
27 verbose headers   'x-served-by': 'cache-ams4120-AMS',
27 verbose headers   'x-cache': 'MISS',
27 verbose headers   'x-cache-hits': '0',
27 verbose headers   'x-timer': 'S1419710426.663444,VS0,VE491',
27 verbose headers   'keep-alive': 'timeout=10, max=50',
27 verbose headers   connection: 'Keep-Alive' }
28 silly registry.get cb [ 404,
28 silly registry.get   { date: 'Sat, 27 Dec 2014 20:00:27 GMT',
28 silly registry.get     server: 'CouchDB/1.5.0 (Erlang OTP/R14B04)',
28 silly registry.get     'content-type': 'application/json',
28 silly registry.get     'cache-control': 'max-age=0',
28 silly registry.get     'content-length': '52',
28 silly registry.get     'accept-ranges': 'bytes',
28 silly registry.get     via: '1.1 varnish',
28 silly registry.get     age: '0',
28 silly registry.get     'x-served-by': 'cache-ams4120-AMS',
28 silly registry.get     'x-cache': 'MISS',
28 silly registry.get     'x-cache-hits': '0',
28 silly registry.get     'x-timer': 'S1419710426.663444,VS0,VE491',
28 silly registry.get     'keep-alive': 'timeout=10, max=50',
28 silly registry.get     connection: 'Keep-Alive' } ]
29 silly lockFile 421d451a-https https@
30 silly lockFile 421d451a-https https@
31 error 404 404 Not Found: https
31 error 404
31 error 404 'https' is not in the npm registry.
31 error 404 You should bug the author to publish it
31 error 404
31 error 404 Note that you can also install from a
31 error 404 tarball, folder, or http url, or git url.
32 error System Linux 3.13.0-24-generic
33 error command "/usr/bin/node" "/usr/bin/npm" "install" "-g" "https"
34 error cwd /home/tlimpanont/Desktop/radiobox2.omproep.nl/headless-tests
35 error node -v v0.10.32
36 error npm -v 1.4.28
37 error code E404
38 verbose exit [ 1, true ]
